^C:\USERS\DANYA\SOURCE\REPOS\EXAMCODEPROJECT\PROJECT6\PROJECT6\SOURCE.CPP
C:\USERS\DANYA\SOURCE\REPOS\EXAMCODEPROJECT\PROJECT6\PROJECT6\DEBUG\VC142.PDB
C:\USERS\DANYA\SOURCE\REPOS\EXAMCODEPROJECT\PROJECT6\PROJECT6\DEBUG\VC142.IDB
C:\USERS\DANYA\SOURCE\REPOS\EXAMCODEPROJECT\PROJECT6\PROJECT6\DEBUG\SOURCE.OBJ
