^C:\USERS\ADMIN\DESKTOP\РЕШЕНИЯ\PROJECT14\PROJECT14\SOURCE.CPP
C:\USERS\ADMIN\DESKTOP\Решения\PROJECT14\PROJECT14\DEBUG\VC142.PDB
C:\USERS\ADMIN\DESKTOP\Решения\PROJECT14\PROJECT14\DEBUG\VC142.IDB
C:\USERS\ADMIN\DESKTOP\Решения\PROJECT14\PROJECT14\DEBUG\SOURCE.OBJ
^C:\USERS\DANYA\SOURCE\REPOS\EXAMCODEPROJECT\PROJECT14\PROJECT14\SOURCE.CPP
C:\USERS\DANYA\SOURCE\REPOS\EXAMCODEPROJECT\PROJECT14\PROJECT14\DEBUG\VC142.PDB
C:\USERS\DANYA\SOURCE\REPOS\EXAMCODEPROJECT\PROJECT14\PROJECT14\DEBUG\VC142.IDB
C:\USERS\DANYA\SOURCE\REPOS\EXAMCODEPROJECT\PROJECT14\PROJECT14\DEBUG\SOURCE.OBJ
