^C:\USERS\ADMIN\DESKTOP\РЕШЕНИЯ\PROJECT4\PROJECT4\SOURCE.CPP
/c /ZI /JMC /nologo /W3 /WX- /diagnostics:column /sdl /Od /Oy- /D WIN32 /D _DEBUG /D _CONSOLE /D _UNICODE /D UNICODE /Gm- /EHsc /RTC1 /MDd /GS /fp:precise /permissive- /Zc:wchar_t /Zc:forScope /Zc:inline /Fo"DEBUG\\" /Fd"DEBUG\VC142.PDB" /Gd /TP /analyze- /FC C:\USERS\ADMIN\DESKTOP\РЕШЕНИЯ\PROJECT4\PROJECT4\SOURCE.CPP
^C:\USERS\DANYA\SOURCE\REPOS\EXAMCODEPROJECT\PROJECT4\PROJECT4\SOURCE.CPP
/c /I"C:\USERS\DANYA\DOWNLOADS\VCPKG-MASTER\VCPKG-MASTER\INSTALLED\X86-WINDOWS\INCLUDE" /ZI /JMC /nologo /W3 /WX- /diagnostics:column /sdl /Od /Oy- /D WIN32 /D _DEBUG /D _CONSOLE /D _UNICODE /D UNICODE /Gm- /EHsc /RTC1 /MDd /GS /fp:precise /permissive- /Zc:wchar_t /Zc:forScope /Zc:inline /Fo"DEBUG\\" /Fd"DEBUG\VC142.PDB" /Gd /TP /analyze- /FC C:\USERS\DANYA\SOURCE\REPOS\EXAMCODEPROJECT\PROJECT4\PROJECT4\SOURCE.CPP
