^C:\USERS\DANYA\SOURCE\REPOS\EXAMCODEPROJECT\PROJECT8\PROJECT8\SOURCE.CPP
C:\USERS\DANYA\SOURCE\REPOS\EXAMCODEPROJECT\PROJECT8\PROJECT8\DEBUG\VC142.PDB
C:\USERS\DANYA\SOURCE\REPOS\EXAMCODEPROJECT\PROJECT8\PROJECT8\DEBUG\VC142.IDB
C:\USERS\DANYA\SOURCE\REPOS\EXAMCODEPROJECT\PROJECT8\PROJECT8\DEBUG\SOURCE.OBJ
