^C:\USERS\DANYA\SOURCE\REPOS\EXAMCODEPROJECT\PROJECT10\PROJECT10\DEBUG\SOURCE.OBJ
C:\USERS\DANYA\SOURCE\REPOS\EXAMCODEPROJECT\DEBUG\PROJECT10.ILK
C:\USERS\DANYA\SOURCE\REPOS\EXAMCODEPROJECT\DEBUG\PROJECT10.EXE
C:\USERS\DANYA\SOURCE\REPOS\EXAMCODEPROJECT\DEBUG\PROJECT10.PDB
